Total height: 212
Total width: 462
Browser calculated height: 172
Browser calculated width: 422


Proofs:

Total height
margin-top + border-top + padding-top + (height of the content)+
padding-bottom + border-bottom + margin-bottom

20 + 1 + 10 + 150 + 10 + 1 + 20 = 212


Total width
margin-left + border-left + padding-left + (width of the content)+
padding-right + border-right + margin-right

20 + 1 + 10 + 400 + 10 + 1 + 20 = 462


Browser calculated height:
border-top + padding-top + (height of the
content)+ padding-bottom + border-bottom

1 + 10 + 150 + 10 + 1 = 172

Browser calculated width:
border-left + padding-left + (width of the
content)+ padding-right + border-right

1 + 10 + 400 + 10 + 1 = 422